mini_project2 – Gyaltsen1741.github.io
…
Hide Code

# Step 2: Extract tables from the page
Squad <- html_nodes(MLS_table, "table")
html_table(Squad, header = TRUE, fill = TRUE)  # find right table

Hide Code

# Step 3: Extract the correct table (the fifth table on the page)
Squad2 <- html_table(Squad, header = TRUE, fill = TRUE)[[5]]
Squad2

# A tibble: 31 × 32
   ``             ``    ``    ``    `Playing Time` `Playing Time` `Playing Time`
   <chr>          <chr> <chr> <chr> <chr>          <chr>          <chr>         
 1 Squad          # Pl  Age   Poss  MP             Starts         Min           
 2 Atlanta Utd    23    29.2  49.1  7              77             630           
 3 Austin         19    28.2  42.4  7              77             630           
 4 CF Montréal    23    24.2  51.9  7              77             630           
 5 Charlotte      18    29.3  50.1  7              77             630           
 6 Chicago Fire   22    25.9  47.7  7              77             630           
 7 Colorado Rapi… 24    26.5  45.7  7              77             630           
 8 Columbus Crew  20    26.6  56.6  7              77             630           
 9 D.C. United    20    26.1  52.4  7              77             630           
10 FC Cincinnati  22    27.5  52.3  7              77             630           
# ℹ 21 more rows
# ℹ 25 more variables: `Playing Time` <chr>, Performance <chr>,
#   Performance <chr>, Performance <chr>, Performance <chr>, Performance <chr>,
#   Performance <chr>, Performance <chr>, Performance <chr>, Expected <chr>,
#   Expected <chr>, Expected <chr>, Expected <chr>, Progression <chr>,
#   Progression <chr>, `Per 90 Minutes` <chr>, `Per 90 Minutes` <chr>,
#   `Per 90 Minutes` <chr>, `Per 90 Minutes` <chr>, `Per 90 Minutes` <chr>, …

Hide Code

# Step 4: Keep only relevant columns and clean the data
Squad2_cleaned <- Squad2 |>
  row_to_names(row_number = 1) |>   # promotes row 1 to column names
  clean_names() |>                  # make the column names snake_case
  select(1:16) |>                   # keep only the first 16 columns
  filter(squad != "Squad") |>       # remove header repeats if any
  mutate(across(2:16, parse_number))# apply parse_number to cols 2–16
Squad2_cleaned

# A tibble: 30 × 16
   squad  number_pl   age  poss    mp starts   min  x90s   gls   ast   g_a  g_pk
   <chr>      <dbl> <dbl> <dbl> <dbl>  <dbl> <dbl> <dbl> <dbl> <dbl> <dbl> <dbl>
 1 Atlan…        23  29.2  49.1     7     77   630     7     9     6    15     8
 2 Austin        19  28.2  42.4     7     77   630     7     5     5    10     5
 3 CF Mo…        23  24.2  51.9     7     77   630     7     4     3     7     4
 4 Charl…        18  29.3  50.1     7     77   630     7    11     6    17    10
 5 Chica…        22  25.9  47.7     7     77   630     7    14     9    23    13
 6 Color…        24  26.5  45.7     7     77   630     7     8     5    13     7
 7 Colum…        20  26.6  56.6     7     77   630     7     9     8    17     9
 8 D.C. …        20  26.1  52.4     7     77   630     7     9     7    16     8
 9 FC Ci…        22  27.5  52.3     7     77   630     7     9     4    13     7
10 FC Da…        20  27.9  44.4     7     77   630     7    10     6    16    10
# ℹ 20 more rows
# ℹ 4 more variables: pk <dbl>, p_katt <dbl>, crd_y <dbl>, crd_r <dbl>
…
  cleaned_table <- raw_table |>
    row_to_names(row_number = 1) |>
    clean_names() |>
    select(1:n_cols) |>
    filter(squad != "Squad") |>
    mutate(across(all_of(2:n_cols), parse_number))
  
  return(cleaned_table)
}

Squad2_cleaned <- scrape_fbref_table("https://fbref.com/en/comps/22/Major-League-Soccer-Stats")
Squad2_cleaned

# A tibble: 30 × 16
   squad  number_pl   age  poss    mp starts   min  x90s   gls   ast   g_a  g_pk
   <chr>      <dbl> <dbl> <dbl> <dbl>  <dbl> <dbl> <dbl> <dbl> <dbl> <dbl> <dbl>
 1 Atlan…        23  29.2  49.1     7     77   630     7     9     6    15     8
 2 Austin        19  28.2  42.4     7     77   630     7     5     5    10     5
 3 CF Mo…        23  24.2  51.9     7     77   630     7     4     3     7     4
 4 Charl…        18  29.3  50.1     7     77   630     7    11     6    17    10
 5 Chica…        22  25.9  47.7     7     77   630     7    14     9    23    13
 6 Color…        24  26.5  45.7     7     77   630     7     8     5    13     7
 7 Colum…        20  26.6  56.6     7     77   630     7     9     8    17     9
 8 D.C. …        20  26.1  52.4     7     77   630     7     9     7    16     8
 9 FC Ci…        22  27.5  52.3     7     77   630     7     9     4    13     7
10 FC Da…        20  27.9  44.4     7     77   630     7    10     6    16    10
# ℹ 20 more rows
# ℹ 4 more variables: pk <dbl>, p_katt <dbl>, crd_y <dbl>, crd_r <dbl>
…
# Step 3: Name each list entry by league
names(league_tables) <- leagues$league

# Now each league table is separate and named:
league_tables$MLS

# A tibble: 30 × 17
   squad  number_pl   age  poss    mp starts   min  x90s   gls   ast   g_a  g_pk
   <chr>      <dbl> <dbl> <dbl> <dbl>  <dbl> <dbl> <dbl> <dbl> <dbl> <dbl> <dbl>
 1 Atlan…        23  29.2  49.1     7     77   630     7     9     6    15     8
 2 Austin        19  28.2  42.4     7     77   630     7     5     5    10     5
 3 CF Mo…        23  24.2  51.9     7     77   630     7     4     3     7     4
 4 Charl…        18  29.3  50.1     7     77   630     7    11     6    17    10
 5 Chica…        22  25.9  47.7     7     77   630     7    14     9    23    13
 6 Color…        24  26.5  45.7     7     77   630     7     8     5    13     7
 7 Colum…        20  26.6  56.6     7     77   630     7     9     8    17     9
 8 D.C. …        20  26.1  52.4     7     77   630     7     9     7    16     8
 9 FC Ci…        22  27.5  52.3     7     77   630     7     9     4    13     7
10 FC Da…        20  27.9  44.4     7     77   630     7    10     6    16    10
# ℹ 20 more rows
# ℹ 5 more variables: pk <dbl>, p_katt <dbl>, crd_y <dbl>, crd_r <dbl>,
#   league <chr>
…
